<?xml version="1.0"?>
<svg
    xmlns:rdf="http://www.w3.org/1999/02/22-rdf-syntax-ns#"
    xmlns="http://www.w3.org/2000/svg"
    xmlns:cc="http://web.resource.org/cc/"
    xmlns:xlink="http://www.w3.org/1999/xlink"
    xmlns:dc="http://purl.org/dc/elements/1.1/"
    xmlns:svg="http://www.w3.org/2000/svg"
    xmlns:inkscape="http://www.inkscape.org/namespaces/inkscape"
    xmlns:sodipodi="http://sodipodi.sourceforge.net/DTD/sodipodi-0.dtd"
    xmlns:ns1="http://sozi.baierouge.fr"
    viewBox="0 0 706 706"
  >
  <defs
    >
    <linearGradient
        id="imagebot_149"
      >
      <stop
          id="imagebot_179"
          stop-color="#fff"
          offset="0"
      />
      <stop
          id="imagebot_178"
          stop-color="#fff"
          stop-opacity="0"
          offset="1"
      />
    </linearGradient
    >
    <filter
        id="imagebot_72"
        color-interpolation-filters="sRGB"
      >
      <feGaussianBlur
          id="imagebot_158"
          stdDeviation="2.93482"
      />
    </filter
    >
    <filter
        id="imagebot_43"
        height="2.0919"
        width="1.0121"
        color-interpolation-filters="sRGB"
        y="-.54596"
        x="-.00607"
      >
      <feGaussianBlur
          id="imagebot_157"
          stdDeviation="0.96922"
      />
    </filter
    >
    <filter
        id="imagebot_41"
        height="5.6167"
        width="1.0485"
        color-interpolation-filters="sRGB"
        y="-2.3084"
        x="-.02425"
      >
      <feGaussianBlur
          id="imagebot_156"
          stdDeviation="3.77857"
      />
    </filter
    >
    <filter
        id="imagebot_54"
        height="5.6167"
        width="1.0485"
        color-interpolation-filters="sRGB"
        y="-2.3084"
        x="-.02425"
      >
      <feGaussianBlur
          id="imagebot_155"
          stdDeviation="3.77857"
      />
    </filter
    >
    <filter
        id="imagebot_38"
        height="6.0496"
        width="1.0241"
        color-interpolation-filters="sRGB"
        y="-2.5248"
        x="-.01206"
      >
      <feGaussianBlur
          id="imagebot_154"
          stdDeviation="1.87857"
      />
    </filter
    >
    <filter
        id="imagebot_6"
        height="1.2945"
        width="1.2945"
        color-interpolation-filters="sRGB"
        y="-.14723"
        x="-.14723"
      >
      <feGaussianBlur
          id="imagebot_153"
          stdDeviation="1.35838"
      />
    </filter
    >
    <filter
        id="imagebot_4"
        height="1.216"
        width="1.216"
        color-interpolation-filters="sRGB"
        y="-.108"
        x="-.108"
      >
      <feGaussianBlur
          id="imagebot_152"
          stdDeviation="0.99646"
      />
    </filter
    >
    <linearGradient
        id="imagebot_9"
        y2=".40765"
        x2=".4014"
        y1=".97949"
        x1="1.0256"
      >
      <stop
          id="imagebot_169"
          offset="0"
      />
      <stop
          id="imagebot_168"
          stop-opacity="0"
          offset="1"
      />
    </linearGradient
    >
    <linearGradient
        id="imagebot_12"
        y2=".69357"
        x2=".42341"
        y1="-.32254"
        x1="-.32579"
      >
      <stop
          id="imagebot_181"
          stop-color="#333"
          offset="0"
      />
      <stop
          id="imagebot_180"
          stop-color="#333"
          stop-opacity="0"
          offset="1"
      />
    </linearGradient
    >
    <linearGradient
        id="imagebot_34"
        y2=".59068"
        xlink:href="#imagebot_149"
        x2=".51071"
        y1="-.17098"
        x1=".11632"
    />
    <linearGradient
        id="imagebot_45"
        y2=".41834"
        xlink:href="#imagebot_149"
        x2=".77639"
        y1="1.2749"
        x1="1.1345"
    />
    <linearGradient
        id="imagebot_76"
        y2="-.01471"
        x2="-.01854"
        y1="1.0192"
        x1="1.0185"
      >
      <stop
          id="imagebot_183"
          offset="0"
      />
      <stop
          id="imagebot_182"
          stop-opacity=".01224"
          offset="1"
      />
    </linearGradient
    >
    <radialGradient
        id="imagebot_65"
        cx="372.25"
        gradientUnits="userSpaceOnUse"
        cy="516.12"
        r="321.16"
        gradientTransform="matrix(.96005 .0064861 -.0044407 .65730 7.6301 324.1)"
      >
      <stop
          id="imagebot_192"
          offset="0"
      />
      <stop
          id="imagebot_191"
          stop-opacity=".49804"
          offset=".79303"
      />
      <stop
          id="imagebot_190"
          stop-opacity="0"
          offset="1"
      />
    </radialGradient
    >
    <filter
        id="imagebot_81"
        color-interpolation-filters="sRGB"
      >
      <feGaussianBlur
          id="imagebot_83"
          stdDeviation="6.9792"
      />
    </filter
    >
  </defs
  >
  <g
      id="imagebot_59"
      label="1"
    >
    <path
        id="imagebot_80"
        opacity=".76735"
        d="m21.881 324.16v698.04h697.77v-698.04h-697.77zm28.155 42.68h30.778c5.581 0 10.072 4.49 10.072 10.07v40.32c0 5.58-4.491 10.07-10.072 10.07h-30.778c-5.582 0-10.072-4.49-10.072-10.07v-40.32c0-5.58 4.49-10.07 10.072-10.07zm86.704 0h30.78c5.58 0 10.07 4.49 10.07 10.07v40.32c0 5.58-4.49 10.07-10.07 10.07h-30.78c-5.58 0-10.07-4.49-10.07-10.07v-40.32c0-5.58 4.49-10.07 10.07-10.07zm88.59 0h30.78c5.58 0 10.07 4.49 10.07 10.07v40.32c0 5.58-4.49 10.07-10.07 10.07h-30.78c-5.58 0-10.07-4.49-10.07-10.07v-40.32c0-5.58 4.49-10.07 10.07-10.07zm86.71 0h30.78c5.58 0 10.07 4.49 10.07 10.07v40.32c0 5.58-4.49 10.07-10.07 10.07h-30.78c-5.58 0-10.07-4.49-10.07-10.07v-40.32c0-5.58 4.49-10.07 10.07-10.07zm86.71 0h30.77c5.58 0 10.08 4.49 10.08 10.07v40.32c0 5.58-4.5 10.07-10.08 10.07h-30.77c-5.59 0-10.08-4.49-10.08-10.07v-40.32c0-5.58 4.49-10.07 10.08-10.07zm86.7 0h30.78c5.58 0 10.07 4.49 10.07 10.07v40.32c0 5.58-4.49 10.07-10.07 10.07h-30.78c-5.58 0-10.07-4.49-10.07-10.07v-40.32c0-5.58 4.49-10.07 10.07-10.07zm86.71 0h30.78c5.58 0 10.07 4.49 10.07 10.07v40.32c0 5.58-4.49 10.07-10.07 10.07h-30.78c-5.58 0-10.07-4.49-10.07-10.07v-40.32c0-5.58 4.49-10.07 10.07-10.07zm88.59 0h30.78c5.58 0 10.07 4.49 10.07 10.07v40.32c0 5.58-4.49 10.07-10.07 10.07h-30.78c-5.58 0-10.07-4.49-10.07-10.07v-40.32c0-5.58 4.49-10.07 10.07-10.07zm-610.71 552.28h30.778c5.581 0 10.072 4.49 10.072 10.07v40.32c0 5.58-4.491 10.07-10.072 10.07h-30.778c-5.582 0-10.072-4.49-10.072-10.07v-40.32c0-5.58 4.49-10.07 10.072-10.07zm86.704 0h30.78c5.58 0 10.07 4.49 10.07 10.07v40.32c0 5.58-4.49 10.07-10.07 10.07h-30.78c-5.58 0-10.07-4.49-10.07-10.07v-40.32c0-5.58 4.49-10.07 10.07-10.07zm88.59 0h30.78c5.58 0 10.07 4.49 10.07 10.07v40.32c0 5.58-4.49 10.07-10.07 10.07h-30.78c-5.58 0-10.07-4.49-10.07-10.07v-40.32c0-5.58 4.49-10.07 10.07-10.07zm86.71 0h30.78c5.58 0 10.07 4.49 10.07 10.07v40.32c0 5.58-4.49 10.07-10.07 10.07h-30.78c-5.58 0-10.07-4.49-10.07-10.07v-40.32c0-5.58 4.49-10.07 10.07-10.07zm86.71 0h30.77c5.58 0 10.08 4.49 10.08 10.07v40.32c0 5.58-4.5 10.07-10.08 10.07h-30.77c-5.59 0-10.08-4.49-10.08-10.07v-40.32c0-5.58 4.49-10.07 10.08-10.07zm86.7 0h30.78c5.58 0 10.07 4.49 10.07 10.07v40.32c0 5.58-4.49 10.07-10.07 10.07h-30.78c-5.58 0-10.07-4.49-10.07-10.07v-40.32c0-5.58 4.49-10.07 10.07-10.07zm86.71 0h30.78c5.58 0 10.07 4.49 10.07 10.07v40.32c0 5.58-4.49 10.07-10.07 10.07h-30.78c-5.58 0-10.07-4.49-10.07-10.07v-40.32c0-5.58 4.49-10.07 10.07-10.07zm88.59 0h30.78c5.58 0 10.07 4.49 10.07 10.07v40.32c0 5.58-4.49 10.07-10.07 10.07h-30.78c-5.58 0-10.07-4.49-10.07-10.07v-40.32c0-5.58 4.49-10.07 10.07-10.07z"
        fill-rule="evenodd"
        transform="translate(-13.879 -23.798) matrix(1 0 0 1 0 -292.36)"
        label="1"
        filter="url(#imagebot_81)"
    />
    <rect
        id="imagebot_79"
        stroke-width="14.137"
        fill-rule="evenodd"
        transform="translate(-13.879 -23.798) matrix(1 0 0 1 0 -292.36)"
        height="450.36"
        width="656.02"
        stroke="#686868"
        y="440.01"
        x="34.753"
        label="1"
        fill="#fff"
    />
    <path
        id="imagebot_78"
        opacity=".5"
        d="m720 276.29v477.86h-696.07c66.43-275.7 635.04-152.59 696.07-477.86z"
        fill-rule="evenodd"
        transform="translate(-13.879 -23.798) matrix(.94246 0 0 .94246 12.202 -112.74)"
        label="1"
        filter="url(#imagebot_72)"
        fill="#ccc"
    />
    <rect
        id="imagebot_77"
        stroke-width="14.137"
        transform="translate(-13.879 -23.798) matrix(1 0 0 1 0 -292.36)"
        height="450.36"
        width="656.02"
        stroke="#b9b9b9"
        y="440.01"
        x="34.753"
        label="1"
        fill="none"
    />
    <rect
        id="imagebot_75"
        opacity=".88163"
        stroke-width="14.137"
        transform="translate(-13.879 -23.798) matrix(1 0 0 1 0 -292.36)"
        height="450.36"
        width="656.02"
        stroke="url(#imagebot_76)"
        y="440.01"
        x="34.753"
        label="1"
        fill="none"
    />
    <path
        id="imagebot_74"
        label="1"
        fill-rule="evenodd"
        transform="translate(-13.879 -23.798) matrix(1 0 0 1 0 -292.36)"
        d="m13.881 316.16v698.04h697.77v-698.04h-697.77zm28.155 42.68h30.778c5.581 0 10.072 4.49 10.072 10.07v40.32c0 5.58-4.491 10.07-10.072 10.07h-30.778c-5.582 0-10.072-4.49-10.072-10.07v-40.32c0-5.58 4.49-10.07 10.072-10.07zm86.704 0h30.78c5.58 0 10.07 4.49 10.07 10.07v40.32c0 5.58-4.49 10.07-10.07 10.07h-30.78c-5.58 0-10.07-4.49-10.07-10.07v-40.32c0-5.58 4.49-10.07 10.07-10.07zm88.59 0h30.78c5.58 0 10.07 4.49 10.07 10.07v40.32c0 5.58-4.49 10.07-10.07 10.07h-30.78c-5.58 0-10.07-4.49-10.07-10.07v-40.32c0-5.58 4.49-10.07 10.07-10.07zm86.71 0h30.78c5.58 0 10.07 4.49 10.07 10.07v40.32c0 5.58-4.49 10.07-10.07 10.07h-30.78c-5.58 0-10.07-4.49-10.07-10.07v-40.32c0-5.58 4.49-10.07 10.07-10.07zm86.71 0h30.77c5.58 0 10.08 4.49 10.08 10.07v40.32c0 5.58-4.5 10.07-10.08 10.07h-30.77c-5.59 0-10.08-4.49-10.08-10.07v-40.32c0-5.58 4.49-10.07 10.08-10.07zm86.7 0h30.78c5.58 0 10.07 4.49 10.07 10.07v40.32c0 5.58-4.49 10.07-10.07 10.07h-30.78c-5.58 0-10.07-4.49-10.07-10.07v-40.32c0-5.58 4.49-10.07 10.07-10.07zm86.71 0h30.78c5.58 0 10.07 4.49 10.07 10.07v40.32c0 5.58-4.49 10.07-10.07 10.07h-30.78c-5.58 0-10.07-4.49-10.07-10.07v-40.32c0-5.58 4.49-10.07 10.07-10.07zm88.59 0h30.78c5.58 0 10.07 4.49 10.07 10.07v40.32c0 5.58-4.49 10.07-10.07 10.07h-30.78c-5.58 0-10.07-4.49-10.07-10.07v-40.32c0-5.58 4.49-10.07 10.07-10.07zm-610.71 552.28h30.778c5.581 0 10.072 4.49 10.072 10.07v40.32c0 5.58-4.491 10.07-10.072 10.07h-30.778c-5.582 0-10.072-4.49-10.072-10.07v-40.32c0-5.58 4.49-10.07 10.072-10.07zm86.704 0h30.78c5.58 0 10.07 4.49 10.07 10.07v40.32c0 5.58-4.49 10.07-10.07 10.07h-30.78c-5.58 0-10.07-4.49-10.07-10.07v-40.32c0-5.58 4.49-10.07 10.07-10.07zm88.59 0h30.78c5.58 0 10.07 4.49 10.07 10.07v40.32c0 5.58-4.49 10.07-10.07 10.07h-30.78c-5.58 0-10.07-4.49-10.07-10.07v-40.32c0-5.58 4.49-10.07 10.07-10.07zm86.71 0h30.78c5.58 0 10.07 4.49 10.07 10.07v40.32c0 5.58-4.49 10.07-10.07 10.07h-30.78c-5.58 0-10.07-4.49-10.07-10.07v-40.32c0-5.58 4.49-10.07 10.07-10.07zm86.71 0h30.77c5.58 0 10.08 4.49 10.08 10.07v40.32c0 5.58-4.5 10.07-10.08 10.07h-30.77c-5.59 0-10.08-4.49-10.08-10.07v-40.32c0-5.58 4.49-10.07 10.08-10.07zm86.7 0h30.78c5.58 0 10.07 4.49 10.07 10.07v40.32c0 5.58-4.49 10.07-10.07 10.07h-30.78c-5.58 0-10.07-4.49-10.07-10.07v-40.32c0-5.58 4.49-10.07 10.07-10.07zm86.71 0h30.78c5.58 0 10.07 4.49 10.07 10.07v40.32c0 5.58-4.49 10.07-10.07 10.07h-30.78c-5.58 0-10.07-4.49-10.07-10.07v-40.32c0-5.58 4.49-10.07 10.07-10.07zm88.59 0h30.78c5.58 0 10.07 4.49 10.07 10.07v40.32c0 5.58-4.49 10.07-10.07 10.07h-30.78c-5.58 0-10.07-4.49-10.07-10.07v-40.32c0-5.58 4.49-10.07 10.07-10.07z"
    />
    <rect
        id="imagebot_73"
        stroke-width="14.137"
        fill-rule="evenodd"
        transform="translate(-13.879 -23.798) matrix(1 0 0 1 0 -292.36)"
        height="450.36"
        width="656.02"
        stroke="#686868"
        y="440.01"
        x="34.753"
        label="1"
        fill="#fff"
    />
    <path
        id="imagebot_71"
        opacity=".5"
        d="m720 276.29v477.86h-696.07c66.43-275.7 635.04-152.59 696.07-477.86z"
        fill-rule="evenodd"
        transform="translate(-13.879 -23.798) matrix(.94246 0 0 .94246 12.202 -112.74)"
        label="1"
        filter="url(#imagebot_72)"
        fill="#ccc"
    />
    <rect
        id="imagebot_70"
        stroke-width="14.137"
        transform="translate(-13.879 -23.798) matrix(1 0 0 1 0 -292.36)"
        height="450.36"
        width="656.02"
        stroke="#b9b9b9"
        y="440.01"
        x="34.753"
        label="1"
        fill="none"
    />
    <rect
        id="imagebot_68"
        opacity=".88163"
        stroke-width="14.137"
        transform="translate(-13.879 -23.798) matrix(1 0 0 1 0 -292.36)"
        height="450.36"
        width="656.02"
        stroke="url(#imagebot_76)"
        y="440.01"
        x="34.753"
        label="1"
        fill="none"
    />
    <path
        id="imagebot_67"
        stroke-linejoin="round"
        d="m582.86 523.79a194.29 194.29 0 1 1 -388.57 0 194.29 194.29 0 1 1 388.57 0z"
        transform="translate(-13.879 -23.798) matrix(.99771 0 0 .99771 -20.653 -146.95)"
        label="1"
        stroke="#000"
        stroke-linecap="round"
        stroke-width="10"
        fill="none"
    />
    <path
        id="imagebot_66"
        stroke-linejoin="round"
        d="m582.86 523.79a194.29 194.29 0 1 1 -388.57 0 194.29 194.29 0 1 1 388.57 0z"
        transform="translate(-13.879 -23.798) matrix(.81476 0 0 .81476 50.433 -51.13)"
        label="1"
        stroke="#000"
        stroke-linecap="round"
        stroke-width="12.245"
        fill="none"
    />
    <path
        id="imagebot_64"
        label="1"
        transform="translate(-13.879 -23.798) matrix(1 0 0 1 0 -292.36)"
        fill="url(#imagebot_65)"
        d="m362.97 447.61v216.63h-320.67l-0.004 8.76h320.67v210.92h8.76v-210.92h311.41v-8.76h-311.41v-216.63h-8.76z"
    />
    <path
        id="imagebot_62"
        label="1"
        transform="translate(-13.879 -23.798) matrix(1 0 0 1 0 -292.36)"
        fill="url(#imagebot_65)"
        d="m362.97 447.61v216.63h-320.67l-0.004 8.76h320.67v210.92h8.76v-210.92h311.41v-8.76h-311.41v-216.63h-8.76z"
    />
    <path
        id="imagebot_60"
        label="1"
        transform="translate(-13.879 -23.798) matrix(1 0 0 1 0 -292.36)"
        fill="url(#imagebot_65)"
        d="m362.97 447.61v216.63h-320.67l-0.004 8.76h320.67v210.92h8.76v-210.92h311.41v-8.76h-311.41v-216.63h-8.76z"
    />
    <title
      >01</title
    >
  </g
  >
  <g
      id="imagebot_52"
      label="2"
    >
    <path
        id="imagebot_58"
        label="2"
        transform="translate(-13.879 -23.798) matrix(1 0 0 1 0 -292.36)"
        d="m219.98 565.24c-2.68 0.93-4.11 3.83-3.18 6.5l1 2.9 0.99 2.89 6.49 18.8 287.78-99.31-6.48-18.79-1-2.89-1-2.9c-0.92-2.67-3.82-4.08-6.49-3.16l-278.11 95.96z"
    />
    <path
        id="imagebot_57"
        opacity=".05"
        d="m302.8 569.58l-26.32-23.81 29.41-10.15 26.31 23.81-29.4 10.15zm58.81-20.3l-26.31-23.81 29.4-10.15 26.32 23.82zm58.82-20.29l-26.32-23.81 29.41-10.15 26.32 23.81zm58.81-20.3l-26.31-23.81 29.41-10.15 26.31 23.82z"
        transform="translate(-13.879 -23.798) matrix(1 0 0 1 0 -292.36)"
        label="2"
        fill="#fff"
    />
    <path
        id="imagebot_56"
        label="2"
        transform="translate(-13.879 -23.798) matrix(1 0 0 1 0 -292.36)"
        fill="#fff"
        d="m307.21 568.06l-26.32-23.82 29.41-10.14 26.32 23.81-29.41 10.15zm58.81-20.3l-26.31-23.81 29.4-10.15 26.32 23.81zm58.82-20.29l-26.32-23.82 29.41-10.14 26.32 23.81zm58.82-20.3l-26.32-23.81 29.41-10.15 26.31 23.81z"
    />
    <rect
        id="imagebot_55"
        opacity=".2"
        ry=".89286"
        transform="translate(-13.879 -23.798) matrix(.7352 -.25368 .25368 .7352 -28.708 -8.066)"
        label="2"
        filter="url(#imagebot_38)"
        width="373.93"
        y="479.65"
        x="186.07"
        height="1.7857"
        fill="#ccc"
    />
    <rect
        id="imagebot_53"
        opacity=".39184"
        ry="1.9643"
        transform="translate(-13.879 -23.798) matrix(.7352 -.25368 .25368 .7352 -28.708 -8.066)"
        label="2"
        filter="url(#imagebot_54)"
        width="373.93"
        y="453.51"
        x="186.07"
        height="3.9286"
        fill="#b3b3b3"
    />
    <title
      >02</title
    >
  </g
  >
  <g
      id="imagebot_2"
      label="3"
    >
    <rect
        id="imagebot_51"
        ry="0"
        transform="translate(-13.879 -23.798) matrix(.97371 .22777 -.22777 .97371 0 -292.36)"
        height="169.99"
        width="294.98"
        y="536.24"
        x="359.22"
        label="3"
        fill="#333"
    />
    <rect
        id="imagebot_50"
        ry="0"
        transform="translate(-13.879 -23.798) matrix(.97371 .22777 -.22777 .97371 0 -292.36)"
        height="31.109"
        width="304.43"
        y="526.69"
        x="354.22"
        label="3"
    />
    <path
        id="imagebot_49"
        label="3"
        transform="translate(-13.879 -23.798) matrix(1 0 0 1 0 -292.36)"
        fill="#fff"
        d="m309.33 613.26l-23.75 26.39 30.3 7.09 23.74-26.39-30.29-7.09zm60.58 14.17l-23.74 26.4 30.29 7.08 23.74-26.39zm60.59 14.17l-23.75 26.4 30.29 7.08 23.75-26.39zm60.58 14.18l-23.75 26.39 30.3 7.09 23.74-26.4z"
    />
    <rect
        id="imagebot_48"
        ry="4.4472"
        transform="translate(-13.879 -23.798) matrix(.97371 .22777 -.22777 .97371 0 -292.36)"
        height="9.9995"
        width="304.43"
        y="696.24"
        x="354.22"
        label="3"
    />
    <rect
        id="imagebot_47"
        ry="0"
        transform="translate(-13.879 -23.798) matrix(.97371 .22777 -.22777 .97371 0 -292.36)"
        height="11.666"
        width="304.43"
        y="700.9"
        x="354.22"
        label="3"
    />
    <rect
        id="imagebot_46"
        opacity=".16571"
        ry="0"
        transform="translate(-13.879 -23.798) matrix(.97371 .22777 -.22777 .97371 0 -292.36)"
        label="3"
        width="288.18"
        y="560.66"
        x="362.7"
        height="132.63"
        fill="#fff"
    />
    <rect
        id="imagebot_44"
        opacity=".5"
        transform="translate(-13.879 -23.798) matrix(-.97371 -.22777 .22777 -.97371 0 -292.36)"
        ry="0"
        label="3"
        width="288.18"
        y="-693.29"
        x="-650.88"
        height="132.63"
        fill="url(#imagebot_45)"
    />
    <rect
        id="imagebot_42"
        opacity=".05714"
        ry="1.8949"
        transform="translate(-13.879 -23.798) matrix(.75729 .17715 -.17715 .75729 176.32 -98.227)"
        label="3"
        filter="url(#imagebot_43)"
        width="383.43"
        y="707.71"
        x="181.86"
        height="4.2606"
        fill="#fff"
    />
    <rect
        id="imagebot_40"
        opacity=".39184"
        ry="1.9643"
        transform="translate(-13.879 -23.798) matrix(.75729 .17715 -.17715 .75729 176.32 -98.227)"
        label="3"
        filter="url(#imagebot_41)"
        width="373.93"
        y="511.5"
        x="186.07"
        height="3.9286"
        fill="#b3b3b3"
    />
    <path
        id="imagebot_39"
        label="3"
        transform="translate(-13.879 -23.798) matrix(1 0 0 1 0 -292.36)"
        fill="#333"
        d="m236.46 567.66l-1.94 1.14-12.48 54.19 57.15 13.37 1.9-1.18-1.05-1.17-0.34 0.17 2.11-9.04-33.52-53.12-11.22-2.62-0.61-1.74z"
    />
    <rect
        id="imagebot_37"
        opacity=".2"
        ry=".89286"
        transform="translate(-13.879 -23.798) matrix(.75729 .17715 -.17715 .75729 176.32 -98.227)"
        label="3"
        filter="url(#imagebot_38)"
        width="373.93"
        y="489.65"
        x="186.07"
        height="1.7857"
        fill="#ccc"
    />
    <path
        id="imagebot_36"
        opacity=".66531"
        label="3"
        transform="translate(-13.879 -23.798) matrix(1 0 0 1 0 -292.36)"
        d="m236.46 567.66l-1.94 1.14-12.48 54.19 57.15 13.37 1.9-1.18-1.05-1.17-0.34 0.17 2.11-9.04-33.52-53.12-11.22-2.62-0.61-1.74z"
    />
    <path
        id="imagebot_35"
        label="3"
        transform="translate(-13.879 -23.798) matrix(1 0 0 1 0 -292.36)"
        fill="#1a1a1a"
        d="m223.92 621.83l57.15 13.37 2.63-11.22-33.55-53.11-13.71-3.21-12.52 54.17z"
    />
    <path
        id="imagebot_33"
        opacity=".31429"
        d="m223.92 621.83l57.15 13.37 2.63-11.22-33.55-53.11-13.71-3.21-12.52 54.17z"
        stroke-opacity="0"
        transform="translate(-13.879 -23.798) matrix(1 0 0 1 0 -292.36)"
        label="3"
        stroke="#000"
        stroke-width=".77774"
        fill="url(#imagebot_34)"
    />
    <path
        id="imagebot_32"
        opacity=".05"
        d="m304.79 612.2l-23.75 26.39 30.29 7.09 23.75-26.4-30.29-7.08zm60.58 14.17l-23.75 26.39 30.3 7.09 23.74-26.39zm60.58 14.17l-23.74 26.4 30.29 7.08 23.74-26.39zm60.59 14.17l-23.75 26.4 30.29 7.08 23.75-26.39z"
        transform="translate(-13.879 -23.798) matrix(1 0 0 1 0 -292.36)"
        label="3"
        fill="#fff"
    />
    <path
        id="imagebot_31"
        label="3"
        transform="translate(-13.879 -23.798) matrix(.34689 .081146 -.081146 .34689 249.84 66.421)"
        fill="#666"
        d="m128.57 597.72a11.071 11.071 0 1 1 -22.14 0 11.071 11.071 0 1 1 22.14 0z"
    />
    <path
        id="imagebot_29"
        d="m128.57 597.72a11.071 11.071 0 1 1 -22.14 0 11.071 11.071 0 1 1 22.14 0z"
        stroke-opacity="0"
        transform="translate(-13.879 -23.798) matrix(.34689 .081146 -.081146 .34689 249.84 66.421)"
        label="3"
        stroke="#000"
        fill="url(#imagebot_12)"
    />
    <path
        id="imagebot_28"
        label="3"
        transform="translate(-13.879 -23.798) matrix(.34689 .081146 -.081146 .34689 250.85 66.12)"
        fill="#808080"
        d="m128.57 597.72a11.071 11.071 0 1 1 -22.14 0 11.071 11.071 0 1 1 22.14 0z"
    />
    <path
        id="imagebot_26"
        label="3"
        transform="translate(-13.879 -23.798) matrix(.34689 .081146 -.081146 .34689 250.85 66.12)"
        fill="url(#imagebot_9)"
        d="m128.57 597.72a11.071 11.071 0 1 1 -22.14 0 11.071 11.071 0 1 1 22.14 0z"
    />
    <path
        id="imagebot_25"
        label="3"
        transform="translate(-13.879 -23.798) matrix(.27849 .065145 -.065145 .27849 249.33 108.88)"
        fill="#4d4d4d"
        d="m128.57 597.72a11.071 11.071 0 1 1 -22.14 0 11.071 11.071 0 1 1 22.14 0z"
    />
    <path
        id="imagebot_24"
        opacity=".17959"
        d="m128.57 597.72a11.071 11.071 0 1 1 -22.14 0 11.071 11.071 0 1 1 22.14 0z"
        transform="translate(-13.879 -23.798) matrix(.14169 .033144 -.021715 .092830 239.95 221.93)"
        label="3"
        filter="url(#imagebot_6)"
        fill="#999"
    />
    <path
        id="imagebot_23"
        opacity=".17959"
        d="m128.57 597.72a11.071 11.071 0 1 1 -22.14 0 11.071 11.071 0 1 1 22.14 0z"
        transform="translate(-13.879 -23.798) matrix(.065189 .015249 -.014997 .064110 242.9 243.1)"
        label="3"
        filter="url(#imagebot_4)"
        fill="#999"
    />
    <path
        id="imagebot_22"
        label="3"
        transform="translate(-13.879 -23.798) matrix(.34689 .081146 -.081146 .34689 240.27 107.32)"
        fill="#666"
        d="m128.57 597.72a11.071 11.071 0 1 1 -22.14 0 11.071 11.071 0 1 1 22.14 0z"
    />
    <path
        id="imagebot_20"
        d="m128.57 597.72a11.071 11.071 0 1 1 -22.14 0 11.071 11.071 0 1 1 22.14 0z"
        stroke-opacity="0"
        transform="translate(-13.879 -23.798) matrix(.34689 .081146 -.081146 .34689 240.27 107.32)"
        label="3"
        stroke="#000"
        fill="url(#imagebot_12)"
    />
    <path
        id="imagebot_19"
        label="3"
        transform="translate(-13.879 -23.798) matrix(.34689 .081146 -.081146 .34689 241.29 107.01)"
        fill="#808080"
        d="m128.57 597.72a11.071 11.071 0 1 1 -22.14 0 11.071 11.071 0 1 1 22.14 0z"
    />
    <path
        id="imagebot_17"
        label="3"
        transform="translate(-13.879 -23.798) matrix(.34689 .081146 -.081146 .34689 241.29 107.01)"
        fill="url(#imagebot_9)"
        d="m128.57 597.72a11.071 11.071 0 1 1 -22.14 0 11.071 11.071 0 1 1 22.14 0z"
    />
    <path
        id="imagebot_16"
        label="3"
        transform="translate(-13.879 -23.798) matrix(.27849 .065145 -.065145 .27849 239.76 149.78)"
        fill="#4d4d4d"
        d="m128.57 597.72a11.071 11.071 0 1 1 -22.14 0 11.071 11.071 0 1 1 22.14 0z"
    />
    <path
        id="imagebot_15"
        opacity=".17959"
        d="m128.57 597.72a11.071 11.071 0 1 1 -22.14 0 11.071 11.071 0 1 1 22.14 0z"
        transform="translate(-13.879 -23.798) matrix(.14169 .033144 -.021715 .092830 230.39 262.82)"
        label="3"
        filter="url(#imagebot_6)"
        fill="#999"
    />
    <path
        id="imagebot_14"
        opacity=".17959"
        d="m128.57 597.72a11.071 11.071 0 1 1 -22.14 0 11.071 11.071 0 1 1 22.14 0z"
        transform="translate(-13.879 -23.798) matrix(.065189 .015249 -.014997 .064110 233.33 283.99)"
        label="3"
        filter="url(#imagebot_4)"
        fill="#999"
    />
    <path
        id="imagebot_13"
        label="3"
        transform="translate(-13.879 -23.798) matrix(.34689 .081146 -.081146 .34689 279.65 116.53)"
        fill="#666"
        d="m128.57 597.72a11.071 11.071 0 1 1 -22.14 0 11.071 11.071 0 1 1 22.14 0z"
    />
    <path
        id="imagebot_11"
        d="m128.57 597.72a11.071 11.071 0 1 1 -22.14 0 11.071 11.071 0 1 1 22.14 0z"
        stroke-opacity="0"
        transform="translate(-13.879 -23.798) matrix(.34689 .081146 -.081146 .34689 279.65 116.53)"
        label="3"
        stroke="#000"
        fill="url(#imagebot_12)"
    />
    <path
        id="imagebot_10"
        label="3"
        transform="translate(-13.879 -23.798) matrix(.34689 .081146 -.081146 .34689 280.67 116.22)"
        fill="#808080"
        d="m128.57 597.72a11.071 11.071 0 1 1 -22.14 0 11.071 11.071 0 1 1 22.14 0z"
    />
    <path
        id="imagebot_8"
        label="3"
        transform="translate(-13.879 -23.798) matrix(.34689 .081146 -.081146 .34689 280.67 116.22)"
        fill="url(#imagebot_9)"
        d="m128.57 597.72a11.071 11.071 0 1 1 -22.14 0 11.071 11.071 0 1 1 22.14 0z"
    />
    <path
        id="imagebot_7"
        label="3"
        transform="translate(-13.879 -23.798) matrix(.27849 .065145 -.065145 .27849 279.14 158.99)"
        fill="#4d4d4d"
        d="m128.57 597.72a11.071 11.071 0 1 1 -22.14 0 11.071 11.071 0 1 1 22.14 0z"
    />
    <path
        id="imagebot_5"
        opacity=".17959"
        d="m128.57 597.72a11.071 11.071 0 1 1 -22.14 0 11.071 11.071 0 1 1 22.14 0z"
        transform="translate(-13.879 -23.798) matrix(.14169 .033144 -.021715 .092830 269.77 272.03)"
        label="3"
        filter="url(#imagebot_6)"
        fill="#999"
    />
    <path
        id="imagebot_3"
        opacity=".17959"
        d="m128.57 597.72a11.071 11.071 0 1 1 -22.14 0 11.071 11.071 0 1 1 22.14 0z"
        transform="translate(-13.879 -23.798) matrix(.065189 .015249 -.014997 .064110 272.71 293.2)"
        label="3"
        filter="url(#imagebot_4)"
        fill="#999"
    />
    <title
      >03</title
    >
  </g
  >
  <metadata
    >
    <rdf:RDF
      >
      <cc:Work
        >
        <dc:format
          >image/svg+xml</dc:format
        >
        <dc:type
            rdf:resource="http://purl.org/dc/dcmitype/StillImage"
        />
        <cc:license
            rdf:resource="http://creativecommons.org/licenses/publicdomain/"
        />
        <dc:publisher
          >
          <cc:Agent
              rdf:about="http://openclipart.org/"
            >
            <dc:title
              >Openclipart</dc:title
            >
          </cc:Agent
          >
        </dc:publisher
        >
        <dc:title
          >Film</dc:title
        >
        <dc:date
          >2013-04-14T01:59:53</dc:date
        >
        <dc:description
          >Film - 03 creado en Inkscape</dc:description
        >
        <dc:source
          >https://openclipart.org/detail/177053/film-by-deiby_ybied-177053</dc:source
        >
        <dc:creator
          >
          <cc:Agent
            >
            <dc:title
              >deiby_ybied</dc:title
            >
          </cc:Agent
          >
        </dc:creator
        >
        <dc:subject
          >
          <rdf:Bag
            >
            <rdf:li
              >entertainment</rdf:li
            >
            <rdf:li
              >film</rdf:li
            >
            <rdf:li
              >movie</rdf:li
            >
            <rdf:li
              >multimedia</rdf:li
            >
            <rdf:li
              >scene</rdf:li
            >
            <rdf:li
              >video</rdf:li
            >
          </rdf:Bag
          >
        </dc:subject
        >
      </cc:Work
      >
      <cc:License
          rdf:about="http://creativecommons.org/licenses/publicdomain/"
        >
        <cc:permits
            rdf:resource="http://creativecommons.org/ns#Reproduction"
        />
        <cc:permits
            rdf:resource="http://creativecommons.org/ns#Distribution"
        />
        <cc:permits
            rdf:resource="http://creativecommons.org/ns#DerivativeWorks"
        />
      </cc:License
      >
    </rdf:RDF
    >
  </metadata
  >
</svg
>
